<?xml version="1.0" encoding="UTF-8" standalone="no"?>
<!-- Creator: Snipicons.com -->

<svg
   xmlns:dc="http://purl.org/dc/elements/1.1/"
   xmlns:cc="http://creativecommons.org/ns#"
   xmlns:rdf="http://www.w3.org/1999/02/22-rdf-syntax-ns#"
   xmlns:svg="http://www.w3.org/2000/svg"
   xmlns="http://www.w3.org/2000/svg"
   xmlns:xlink="http://www.w3.org/1999/xlink"
   xmlns:sodipodi="http://sodipodi.sourceforge.net/DTD/sodipodi-0.dtd"
   xmlns:inkscape="http://www.inkscape.org/namespaces/inkscape"
   xml:space="preserve"
   width="100%"
   height="100%"
   version="1.1"
   style="shape-rendering:geometricPrecision; text-rendering:geometricPrecision; image-rendering:optimizeQuality; fill-rule:evenodd; clip-rule:evenodd"
   viewBox="0 0 500 500"
   id="svg2"
   inkscape:version="0.48.4 r9939"
   sodipodi:docname="delete.svg"
   inkscape:export-filename="C:\Users\PeterSchregle\Desktop\nVision Icons\delete.png"
   inkscape:export-xdpi="5.7600002"
   inkscape:export-ydpi="5.7600002"><metadata
   id="metadata22"><rdf:RDF><cc:Work
       rdf:about=""><dc:format>image/svg+xml</dc:format><dc:type
         rdf:resource="http://purl.org/dc/dcmitype/StillImage" /><dc:title></dc:title></cc:Work></rdf:RDF></metadata><sodipodi:namedview
   pagecolor="#ffffff"
   bordercolor="#666666"
   borderopacity="1"
   objecttolerance="10"
   gridtolerance="10"
   guidetolerance="10"
   inkscape:pageopacity="0"
   inkscape:pageshadow="2"
   inkscape:window-width="640"
   inkscape:window-height="480"
   id="namedview20"
   showgrid="false"
   inkscape:zoom="0.472"
   inkscape:cx="250"
   inkscape:cy="250"
   inkscape:window-x="4334"
   inkscape:window-y="709"
   inkscape:window-maximized="0"
   inkscape:current-layer="svg2" />
 <defs
   id="defs4">
  <style
   type="text/css"
   id="style6">
   
    .str0 {stroke:#3B9CFF;stroke-width:22.21}
    .fil2 {fill:none}
    .fil1 {fill:url(#id0)}
    .fil0 {fill:url(#id1)}
   
  </style>
  <linearGradient
   id="id0"
   gradientUnits="userSpaceOnUse"
   x1="250.004"
   y1="50.004"
   x2="250.004"
   y2="450.004">
   <stop
   offset="0"
   style="stop-color:#F03131"
   id="stop9" />
   <stop
   offset="1"
   style="stop-color:#B80202"
   id="stop11" />
  </linearGradient>
  <linearGradient
   id="id1"
   gradientUnits="userSpaceOnUse"
   xlink:href="#id0"
   x1="240.003"
   y1="477.476"
   x2="240.003"
   y2="57.532">
  </linearGradient>
 </defs>
 <g
   id="Layer_x0020_1">
  <metadata
   id="SnipMaster" />
  <polygon
   class="fil0"
   points="385,44 456,115 321,250 456,385 385,456 250,321 115,456 44,385 179,250 44,115 115,44 250,179 "
   id="polygon16" />
  <polygon
   class="fil1"
   points="385,59 441,115 307,250 441,385 385,441 250,307 115,441 59,385 193,250 59,115 115,59 250,193 "
   id="polygon18" />
  
 </g>
</svg>