<?xml version="1.0" encoding="UTF-8" standalone="no"?>
<!-- Creator: Snipicons.com -->

<svg
   xmlns:dc="http://purl.org/dc/elements/1.1/"
   xmlns:cc="http://creativecommons.org/ns#"
   xmlns:rdf="http://www.w3.org/1999/02/22-rdf-syntax-ns#"
   xmlns:svg="http://www.w3.org/2000/svg"
   xmlns="http://www.w3.org/2000/svg"
   xmlns:sodipodi="http://sodipodi.sourceforge.net/DTD/sodipodi-0.dtd"
   xmlns:inkscape="http://www.inkscape.org/namespaces/inkscape"
   xml:space="preserve"
   width="100%"
   height="100%"
   version="1.1"
   style="shape-rendering:geometricPrecision; text-rendering:geometricPrecision; image-rendering:optimizeQuality; fill-rule:evenodd; clip-rule:evenodd"
   viewBox="0 0 500 500"
   id="svg2"
   inkscape:version="0.48.4 r9939"
   sodipodi:docname="erosion.svg"
   inkscape:export-filename="C:\Users\PeterSchregle\Desktop\nVision Icons\erosion.png"
   inkscape:export-xdpi="5.7600002"
   inkscape:export-ydpi="5.7600002"><metadata
   id="metadata23"><rdf:RDF><cc:Work
       rdf:about=""><dc:format>image/svg+xml</dc:format><dc:type
         rdf:resource="http://purl.org/dc/dcmitype/StillImage" /><dc:title></dc:title></cc:Work></rdf:RDF></metadata><sodipodi:namedview
   pagecolor="#ffffff"
   bordercolor="#666666"
   borderopacity="1"
   objecttolerance="10"
   gridtolerance="10"
   guidetolerance="10"
   inkscape:pageopacity="0"
   inkscape:pageshadow="2"
   inkscape:window-width="640"
   inkscape:window-height="480"
   id="namedview21"
   showgrid="false"
   inkscape:zoom="0.472"
   inkscape:cx="250"
   inkscape:cy="250"
   inkscape:window-x="4542"
   inkscape:window-y="604"
   inkscape:window-maximized="0"
   inkscape:current-layer="svg2" />
 <defs
   id="defs4">
  <style
   type="text/css"
   id="style6">
   
    
    .str0 {stroke:#434242;stroke-width:10}
    .fil2 {fill:none}
    .fil1 {fill:#727271}
    .fil3 {fill:#0099FF}
    .fil0 {fill:url(#id0)}
   
  </style>
  <radialGradient
   id="id0"
   gradientUnits="objectBoundingBox"
   cx="50.0003%"
   cy="76%"
   r="50%"
   fx="50.0003%"
   fy="76%">
   <stop
   offset="0"
   style="stop-color:#89D0FF"
   id="stop9" />
   <stop
   offset="1"
   style="stop-color:#008DEB"
   id="stop11" />
  </radialGradient>
 </defs>
 <g
   id="Layer_x0020_1">
  <metadata
   id="SnipMaster" />
  <path
   class="fil0 str0"
   d="M235 40c-53,110 -141,177 -155,260 -12,75 48,180 170,180l0 -455c-5,0 -10,5 -15,15z"
   id="path15" />
  <path
   class="fil1"
   d="M317 365c-4,-4 -10,-7 -16,-7 -7,0 -13,3 -17,7 -4,4 -7,10 -7,16 0,7 3,13 7,17 4,4 10,7 17,7 6,0 12,-3 16,-7 5,-4 7,-10 7,-17 0,-6 -2,-12 -7,-16zm-40 -101l0 0 0 0 0 0 0 0zm0 0l0 0 0 0 0 0 0 0zm0 0l0 0c0,0 0,0 0,0l0 0 0 0 0 0 0 0 0 0m64 165c-2,-3 -5,-4 -8,-4 -4,0 -7,1 -9,4l0 0c-3,2 -4,5 -4,9 0,3 1,6 4,8l0 0c2,3 5,4 9,4 3,0 6,-1 8,-4l0 0c3,-2 4,-5 4,-8 0,-4 -1,-7 -4,-9l0 0zm46 -56c-3,-4 -7,-5 -12,-5 -5,0 -9,1 -12,5 -4,3 -5,7 -5,12 0,5 1,9 5,12 3,4 7,6 12,6 5,0 9,-2 12,-6 4,-3 6,-7 6,-12 0,-5 -2,-9 -6,-12zm-108 93c1,1 3,2 5,2 1,0 3,-1 4,-2l0 0c1,-1 2,-3 2,-5 0,-1 -1,-3 -2,-4l0 0c-1,-1 -3,-2 -4,-2 -2,0 -4,1 -5,2 -1,1 -2,3 -2,4 0,2 1,4 2,5l0 0zm-1 -394c0,0 1,1 2,1 0,0 1,-1 2,-1l0 0c0,0 0,-1 0,-2 0,0 0,-1 0,-2 -1,0 -2,0 -2,0 -1,0 -2,0 -2,0l0 0c0,1 -1,2 -1,2 0,1 1,2 1,2zm7 251c3,3 7,5 12,5 5,0 10,-2 13,-5 3,-3 5,-8 5,-13 0,-5 -2,-9 -5,-13 -3,-3 -8,-5 -13,-5 -5,0 -9,2 -12,5 -4,4 -6,8 -6,13 0,5 2,10 6,13zm110 -44c-6,-5 -13,-9 -22,-9 -9,0 -17,4 -22,9 -6,6 -9,14 -9,22 0,9 3,17 9,22 5,6 13,9 22,9 9,0 16,-3 22,-9 6,-5 9,-13 9,-22 0,-8 -3,-16 -9,-22zm-96 -107c3,2 7,4 11,4 4,0 8,-2 11,-4 3,-3 5,-7 5,-12 0,-4 -2,-8 -5,-11 -3,-3 -7,-5 -11,-5 -4,0 -8,2 -11,5 -3,3 -5,7 -5,11 0,5 2,9 5,12zm3 80c3,3 8,5 13,5 5,0 9,-2 12,-5 4,-3 6,-8 6,-13 0,-5 -2,-9 -6,-12 -3,-4 -7,-6 -12,-6 -5,0 -10,2 -13,6 -3,3 -5,7 -5,12 0,5 2,10 5,13zm61 -11c2,2 4,3 7,3 3,0 5,-1 7,-3l0 0c1,-2 2,-4 2,-7 0,-2 -1,-5 -2,-6l0 0c-2,-2 -4,-3 -7,-3 -3,0 -5,1 -7,3l0 0c-1,1 -2,4 -2,6 0,3 1,5 2,7zm-17 -44c1,1 1,1 2,1 1,0 1,0 2,-1l0 0c0,0 1,-1 1,-2 0,0 -1,-1 -1,-1 -1,-1 -1,-1 -2,-1 -1,0 -1,0 -2,1l0 0c0,0 0,1 0,1 0,1 0,2 0,2zm-66 -78c1,1 4,2 6,2 2,0 5,-1 6,-2 2,-2 3,-4 3,-7 0,-2 -1,-4 -3,-6 -1,-1 -4,-2 -6,-2 -2,0 -5,1 -6,2 -2,2 -3,4 -3,6 0,3 1,5 3,7zm-1 86c1,1 3,2 5,2 2,0 4,-1 5,-2l0 0c1,-1 2,-3 2,-5 0,-2 -1,-3 -2,-4l0 0c-1,-2 -3,-2 -5,-2 -2,0 -4,0 -5,2l0 0c-1,1 -2,3 -2,4 0,2 1,4 2,5l0 0z"
   id="path17" />
  
  <path
   class="fil3"
   d="M24 37c-2,-2 -4,-5 -4,-8 0,-6 5,-11 11,-11 45,0 91,0 136,0 6,0 11,5 11,11 0,3 -2,6 -4,8 -19,21 -38,43 -57,64 -4,3 -4,7 -4,11l0 61c0,3 -3,7 -7,7l-22 -18 0 -50c0,-4 0,-8 -3,-11 -19,-21 -38,-43 -57,-64zm49 32c-2,-2 -1,-7 2,-7l47 0c5,0 4,5 3,7 -6,8 -13,15 -20,22 -1,1 -1,2 -1,4l0 64c0,1 -1,2 -3,2l-7 -6 0 -60c0,-2 0,-3 -1,-4l-20 -22z"
   id="path19" />
 </g>
</svg>