<?xml version="1.0" encoding="UTF-8" standalone="no"?>
<svg
   xmlns:dc="http://purl.org/dc/elements/1.1/"
   xmlns:cc="http://creativecommons.org/ns#"
   xmlns:rdf="http://www.w3.org/1999/02/22-rdf-syntax-ns#"
   xmlns:svg="http://www.w3.org/2000/svg"
   xmlns="http://www.w3.org/2000/svg"
   xmlns:xlink="http://www.w3.org/1999/xlink"
   xmlns:sodipodi="http://sodipodi.sourceforge.net/DTD/sodipodi-0.dtd"
   xmlns:inkscape="http://www.inkscape.org/namespaces/inkscape"
   xml:space="preserve"
   width="100%"
   height="100%"
   version="1.1"
   style="shape-rendering:geometricPrecision; text-rendering:geometricPrecision; image-rendering:optimizeQuality; fill-rule:evenodd; clip-rule:evenodd"
   viewBox="0 0 500 500"
   id="svg29765"
   inkscape:version="0.48.5 r10040"
   sodipodi:docname="features_match_pattern.svg"
   inkscape:export-filename="C:\Users\PeterSchregle\Desktop\features_match_pattern.png"
   inkscape:export-xdpi="5.7600002"
   inkscape:export-ydpi="5.7600002"><sodipodi:namedview
   pagecolor="#ffffff"
   bordercolor="#666666"
   borderopacity="1"
   objecttolerance="10"
   gridtolerance="10"
   guidetolerance="10"
   inkscape:pageopacity="0"
   inkscape:pageshadow="2"
   inkscape:window-width="2560"
   inkscape:window-height="1537"
   id="namedview29777"
   showgrid="false"
   inkscape:zoom="1.89"
   inkscape:cx="166.20489"
   inkscape:cy="221.89835"
   inkscape:window-x="2872"
   inkscape:window-y="-8"
   inkscape:window-maximized="1"
   inkscape:current-layer="svg29765" /><metadata
   id="metadata29779"><rdf:RDF><cc:Work
       rdf:about=""><dc:format>image/svg+xml</dc:format><dc:type
         rdf:resource="http://purl.org/dc/dcmitype/StillImage" /><dc:title></dc:title></cc:Work></rdf:RDF></metadata>
 <defs
   id="defs29767"><pattern
   inkscape:collect="always"
   xlink:href="#pattern5454"
   id="pattern5462"
   patternTransform="translate(83.707553,90.000449)" /><pattern
   inkscape:collect="always"
   xlink:href="#pattern5379-508"
   id="pattern5454"
   patternTransform="translate(83.707553,90.000449)" /><pattern
   patternTransform="matrix(10,0,0,10,-155.13611,-31.270277)"
   id="pattern5382"
   xlink:href="#pattern5377"
   inkscape:collect="always" /><pattern
   patternTransform="matrix(10,0,0,10,-39.68254,101.0582)"
   id="pattern5377"
   xlink:href="#Strips1_1"
   inkscape:collect="always" /><pattern
   inkscape:collect="always"
   patternUnits="userSpaceOnUse"
   width="2"
   height="1"
   patternTransform="translate(0,0) scale(10,10)"
   id="Strips1_1"
   inkscape:stockid="Stripes 1:1"><rect
     style="fill:black;stroke:none"
     x="0"
     y="-0.5"
     width="1"
     height="2"
     id="rect4577" /></pattern><pattern
   patternTransform="matrix(10,0,0,10,-155.13611,-31.270277)"
   id="pattern5305"
   xlink:href="#Strips1_1.5"
   inkscape:collect="always" /><pattern
   inkscape:collect="always"
   patternUnits="userSpaceOnUse"
   width="2.5"
   height="1"
   patternTransform="translate(0,0) scale(10,10)"
   id="Strips1_1.5"
   inkscape:stockid="Stripes 1:1.5"><rect
     style="fill:black;stroke:none"
     x="0"
     y="-0.5"
     width="1"
     height="2"
     id="rect4583" /></pattern>
  <style
   id="style29769"
   type="text/css">
   
    .str0 {stroke:#434242;stroke-width:30}
    .fil0 {fill:none}
    .fil1 {fill:#434242}
   
  </style>
 
  
  
  
 <pattern
   id="pattern5302"
   patternTransform="translate(155.13611,31.270277)"
   height="319.99913"
   width="332.58491"
   patternUnits="userSpaceOnUse"><path
     style="fill:url(#pattern5305);fill-opacity:1;stroke:none"
     d="m 114.73029,2.6102429 c -0.41303,-0.11067 -0.83245,-0.20164 -1.24567,-0.30144 l -4.19575,-1.12424 c -7.35538,-1.97085997 -14.034272,-1.41584997 -19.660282,1.17017 -17.02801,4.25553 -31.25326,17.3899011 -36.13555,35.6108511 L 1.7292378,231.15075 c -7.16929,26.75613 8.5991902,54.06794 35.3553302,61.23724 l 96.592592,25.8819 c 26.75615,7.16928 54.06796,-8.5992 61.23724,-35.35534 l 12.93287,-48.26611 87.29554,23.39077 c 23.16979,6.20833 39.74877,-12.436 37.17966,-41.80154 L 323.03863,110.22245 C 320.46953,80.856923 299.74494,52.217124 276.57515,46.008794 l -64.02277,-17.15485 c -0.41266,-0.12178 -0.81144,-0.24978 -1.2295,-0.3618 L 114.73029,2.6102429 z m 42.40815,60.1506211 c 27.09669,7.260529 43.10643,35.328279 35.77027,62.707216 -7.33617,27.37895 -35.24297,43.71163 -62.33966,36.4511 C 103.47236,154.65864 87.440498,126.55263 94.776668,99.173683 102.11285,71.794733 130.04175,55.500324 157.13844,62.760864 z"
     id="rect5433-1"
     inkscape:connector-curvature="0" /></pattern><pattern
   id="pattern5379"
   patternTransform="translate(115.45357,132.32848)"
   height="319.99913"
   width="332.58491"
   patternUnits="userSpaceOnUse"><path
     style="fill:url(#pattern5382);fill-opacity:1;stroke:none"
     d="m 114.73029,2.6102429 c -0.41303,-0.11067 -0.83245,-0.20164 -1.24567,-0.30144 l -4.19575,-1.12424 c -7.35538,-1.97085997 -14.034272,-1.41584997 -19.660282,1.17017 -17.02801,4.25553 -31.25326,17.3899001 -36.13555,35.6108501 L 1.7292378,231.15075 c -7.16929,26.75613 8.5991902,54.06794 35.3553302,61.23724 l 96.592592,25.8819 c 26.75615,7.16928 54.06796,-8.5992 61.23724,-35.35534 l 12.93287,-48.26611 87.29554,23.39077 c 23.16979,6.20833 39.74877,-12.436 37.17966,-41.80154 L 323.03863,110.22245 C 320.46953,80.856923 299.74494,52.217123 276.57515,46.008793 l -64.02277,-17.15485 c -0.41266,-0.12178 -0.81144,-0.24978 -1.2295,-0.3618 L 114.73029,2.6102429 z m 42.40815,60.1506201 c 27.09669,7.26053 43.10643,35.32828 35.77027,62.707217 -7.33617,27.37895 -35.24297,43.71163 -62.33966,36.4511 -27.09669,-7.26054 -43.128552,-35.36655 -35.792382,-62.745497 7.336182,-27.37895 35.265082,-43.67336 62.361772,-36.41282 z"
     id="path5309"
     inkscape:connector-curvature="0" /></pattern><pattern
   id="pattern5379-508"
   patternTransform="translate(115.45357,132.32848)"
   height="319.99913"
   width="332.58491"
   patternUnits="userSpaceOnUse"><path
     style="fill:url(#pattern5382-456);fill-opacity:1;stroke:none"
     d="m 114.73029,2.6102429 c -0.41303,-0.11067 -0.83245,-0.20164 -1.24567,-0.30144 l -4.19575,-1.12424 c -7.35538,-1.97085997 -14.034272,-1.41584997 -19.660282,1.17017 -17.02801,4.25553 -31.25326,17.3899001 -36.13555,35.6108501 L 1.7292378,231.15075 c -7.16929,26.75613 8.5991902,54.06794 35.3553302,61.23724 l 96.592592,25.8819 c 26.75615,7.16928 54.06796,-8.5992 61.23724,-35.35534 l 12.93287,-48.26611 87.29554,23.39077 c 23.16979,6.20833 39.74877,-12.436 37.17966,-41.80154 L 323.03863,110.22245 C 320.46953,80.856923 299.74494,52.217123 276.57515,46.008793 l -64.02277,-17.15485 c -0.41266,-0.12178 -0.81144,-0.24978 -1.2295,-0.3618 L 114.73029,2.6102429 z m 42.40815,60.1506201 c 27.09669,7.26053 43.10643,35.32828 35.77027,62.707217 -7.33617,27.37895 -35.24297,43.71163 -62.33966,36.4511 -27.09669,-7.26054 -43.128552,-35.36655 -35.792382,-62.745497 7.336182,-27.37895 35.265082,-43.67336 62.361772,-36.41282 z"
     id="path5403"
     inkscape:connector-curvature="0" /></pattern><pattern
   patternTransform="matrix(10,0,0,10,-155.13611,-31.270277)"
   id="pattern5382-456"
   xlink:href="#pattern5377-353"
   inkscape:collect="always" /><pattern
   patternTransform="matrix(10,0,0,10,-39.68254,101.0582)"
   id="pattern5377-353"
   xlink:href="#Strips1_1-465"
   inkscape:collect="always" /><pattern
   inkscape:collect="always"
   patternUnits="userSpaceOnUse"
   width="2"
   height="1"
   patternTransform="translate(0,0) scale(10,10)"
   id="Strips1_1-465"
   inkscape:stockid="Stripes 1:1"><rect
     style="fill:#0080ff;stroke:none"
     x="0"
     y="-0.5"
     width="1"
     height="2"
     id="rect5408" /></pattern></defs>
 
<g
   id="Layer_x0020_1"
   style="fill-rule:evenodd"
   transform="translate(-2630.7837,-2380.4233)"><metadata
     id="CorelCorpID_0Corel-Layer" /><path
     style="fill:none"
     id="path5347"
     d="M 4500,2300 3500,1300 c -50,-50 -100,-100 -200,-100 -100,0 -200,100 -200,200 l 0,500 c 0,50 -50,100 -100,100 l -2500,0 c -50,0 -100,50 -100,100 l 0,800 c 0,50 50,100 100,100 l 2500,0 c 50,0 100,50 100,100 l 0,500 c 0,100 100,200 200,200 100,0 150,-50 200,-100 L 4500,2700 c 135,-135 135,-265 0,-400 z"
     class="fil0"
     inkscape:connector-curvature="0" /></g><g
   id="Layer_x0020_1-1"
   style="fill-rule:evenodd"
   transform="translate(-2906.9742,-2533.3333)"><metadata
     id="CorelCorpID_0Corel-Layer-7" /><path
     style="fill:none"
     id="path5347-4"
     d="M 4500,2300 3500,1300 c -50,-50 -100,-100 -200,-100 -100,0 -200,100 -200,200 l 0,500 c 0,50 -50,100 -100,100 l -2500,0 c -50,0 -100,50 -100,100 l 0,800 c 0,50 50,100 100,100 l 2500,0 c 50,0 100,50 100,100 l 0,500 c 0,100 100,200 200,200 100,0 150,-50 200,-100 L 4500,2700 c 135,-135 135,-265 0,-400 z"
     class="fil0"
     inkscape:connector-curvature="0" /></g><g
   id="Layer_x0020_1-0"
   style="fill-rule:evenodd"
   transform="translate(-2911.207,-2531.746)"><metadata
     id="CorelCorpID_0Corel-Layer-9" /><path
     style="fill:none"
     id="path5347-48"
     d="M 4500,2300 3500,1300 c -50,-50 -100,-100 -200,-100 -100,0 -200,100 -200,200 l 0,500 c 0,50 -50,100 -100,100 l -2500,0 c -50,0 -100,50 -100,100 l 0,800 c 0,50 50,100 100,100 l 2500,0 c 50,0 100,50 100,100 l 0,500 c 0,100 100,200 200,200 100,0 150,-50 200,-100 L 4500,2700 c 135,-135 135,-265 0,-400 z"
     class="fil0"
     inkscape:connector-curvature="0" /></g><g
   id="g5466"><path
     style="fill:#666666;fill-opacity:1;stroke:none"
     d="m 198.43783,92.61068 c -0.41303,-0.11067 -0.83245,-0.20164 -1.24567,-0.30144 L 192.99641,91.185 c -7.35538,-1.97086 -14.03426,-1.41585 -19.66027,1.17017 -17.02801,4.25553 -31.25326,17.3899 -36.13555,35.61085 L 85.436781,321.15119 c -7.16929,26.75613 8.59919,54.06794 35.355339,61.23724 l 96.59258,25.8819 c 26.75615,7.16928 54.06796,-8.5992 61.23724,-35.35534 l 12.93287,-48.26611 87.29554,23.39077 c 23.16979,6.20833 39.74877,-12.436 37.17966,-41.80154 l -9.28384,-106.01522 c -2.5691,-29.36553 -23.29369,-58.00533 -46.46348,-64.21366 l -64.02277,-17.15485 c -0.41266,-0.12178 -0.81144,-0.24978 -1.2295,-0.3618 l -96.59259,-25.8819 z m 42.40815,60.15062 c 27.09669,7.26053 43.10643,35.32828 35.77027,62.70722 -7.33617,27.37895 -35.24297,43.71163 -62.33966,36.4511 -27.09669,-7.26054 -43.12854,-35.36655 -35.79237,-62.7455 7.33617,-27.37895 35.26507,-43.67336 62.36176,-36.41282 z"
     id="rect5433"
     inkscape:connector-curvature="0" /><rect
     style="fill:url(#pattern5462);stroke:none"
     width="332.5849"
     height="319.99911"
     x="83.70755"
     y="90.000443"
     id="rect5384" /></g></svg>