<?xml version="1.0" encoding="UTF-8" standalone="no"?>
<!-- Creator: Snipicons.com -->

<svg
   xmlns:dc="http://purl.org/dc/elements/1.1/"
   xmlns:cc="http://creativecommons.org/ns#"
   xmlns:rdf="http://www.w3.org/1999/02/22-rdf-syntax-ns#"
   xmlns:svg="http://www.w3.org/2000/svg"
   xmlns="http://www.w3.org/2000/svg"
   xmlns:sodipodi="http://sodipodi.sourceforge.net/DTD/sodipodi-0.dtd"
   xmlns:inkscape="http://www.inkscape.org/namespaces/inkscape"
   xml:space="preserve"
   width="100%"
   height="100%"
   version="1.1"
   style="shape-rendering:geometricPrecision; text-rendering:geometricPrecision; image-rendering:optimizeQuality; fill-rule:evenodd; clip-rule:evenodd"
   viewBox="0 0 500 500"
   id="svg2"
   inkscape:version="0.48.4 r9939"
   sodipodi:docname="flip.svg"
   inkscape:export-filename="C:\Users\PeterSchregle\Desktop\nVision Icons\flip.png"
   inkscape:export-xdpi="5.7600002"
   inkscape:export-ydpi="5.7600002"><metadata
   id="metadata30"><rdf:RDF><cc:Work
       rdf:about=""><dc:format>image/svg+xml</dc:format><dc:type
         rdf:resource="http://purl.org/dc/dcmitype/StillImage" /><dc:title></dc:title></cc:Work></rdf:RDF></metadata><sodipodi:namedview
   pagecolor="#ffffff"
   bordercolor="#666666"
   borderopacity="1"
   objecttolerance="10"
   gridtolerance="10"
   guidetolerance="10"
   inkscape:pageopacity="0"
   inkscape:pageshadow="2"
   inkscape:window-width="640"
   inkscape:window-height="480"
   id="namedview28"
   showgrid="false"
   inkscape:zoom="0.472"
   inkscape:cx="250"
   inkscape:cy="250"
   inkscape:window-x="4380"
   inkscape:window-y="593"
   inkscape:window-maximized="0"
   inkscape:current-layer="svg2" />
 <defs
   id="defs4">
  <style
   type="text/css"
   id="style6">
   
    .str0 {stroke:#3B9CFF;stroke-width:22.21}
    .str4 {stroke:#434242;stroke-width:5}
    .str2 {stroke:#434242;stroke-width:10}
    .str1 {stroke:#666666;stroke-width:10}
    .str3 {stroke:#747474;stroke-width:10;stroke-dasharray:20.000000 10.000000}
    .fil0 {fill:none}
    .fil1 {fill:#C5C5C5;fill-opacity:0.3}
    .fil3 {fill:url(#id0)}
    .fil2 {fill:url(#id1)}
   
  </style>
  <linearGradient
   id="id0"
   gradientUnits="userSpaceOnUse"
   x1="34.84"
   y1="370.62"
   x2="145.168"
   y2="370.62">
   <stop
   offset="0"
   style="stop-color:#0081D8"
   id="stop9" />
   <stop
   offset="1"
   style="stop-color:#3BB0FF"
   id="stop11" />
  </linearGradient>
  <linearGradient
   id="id1"
   gradientUnits="userSpaceOnUse"
   x1="415.133"
   y1="119.428"
   x2="266.969"
   y2="119.428">
   <stop
   offset="0"
   style="stop-color:#008DEB"
   id="stop14" />
   <stop
   offset="1"
   style="stop-color:#3BB0FF"
   id="stop16" />
  </linearGradient>
 </defs>
 <g
   id="Layer_x0020_1">
  <metadata
   id="SnipMaster" />
  
  <polygon
   class="fil1 str1"
   points="180,290 180,300 470,470 470,290 "
   id="polygon20" />
  <polygon
   class="fil2 str2"
   points="180,210 180,200 470,30 470,210 "
   id="polygon22" />
  <line
   class="fil0 str3"
   x1="20"
   y1="250"
   x2="480"
   y2="250"
   id="line24" />
  <path
   class="fil3 str4"
   d="M78 420l-37 -37c-3,-3 -6,-6 -6,-12 0,-7 6,-13 12,-13l12 0c3,0 6,-3 6,-6l0 -82 50 0 0 82c0,3 3,6 6,6l12 0c6,0 12,6 12,13 0,6 -3,9 -6,12l-37 37c-8,8 -16,8 -24,0zm0 -340l-37 37c-3,3 -6,6 -6,12 0,7 6,13 12,13l12 0c3,0 6,3 6,6l0 82 50 0 0 -82c0,-3 3,-6 6,-6l12 0c6,0 12,-6 12,-13 0,-6 -3,-9 -6,-12l-37 -37c-8,-8 -16,-8 -24,0z"
   id="path26" />
 </g>
</svg>