<?xml version="1.0" encoding="UTF-8" standalone="no"?>
<!-- Creator: Snipicons.com -->

<svg
   xmlns:dc="http://purl.org/dc/elements/1.1/"
   xmlns:cc="http://creativecommons.org/ns#"
   xmlns:rdf="http://www.w3.org/1999/02/22-rdf-syntax-ns#"
   xmlns:svg="http://www.w3.org/2000/svg"
   xmlns="http://www.w3.org/2000/svg"
   xmlns:sodipodi="http://sodipodi.sourceforge.net/DTD/sodipodi-0.dtd"
   xmlns:inkscape="http://www.inkscape.org/namespaces/inkscape"
   xml:space="preserve"
   width="100%"
   height="100%"
   version="1.1"
   style="shape-rendering:geometricPrecision; text-rendering:geometricPrecision; image-rendering:optimizeQuality; fill-rule:evenodd; clip-rule:evenodd"
   viewBox="0 0 500 500"
   id="svg2"
   inkscape:version="0.48.4 r9939"
   sodipodi:docname="gauge_vpos.svg"
   inkscape:export-filename="C:\Users\PeterSchregle\Desktop\nVision Icons\gauge_vpos.png"
   inkscape:export-xdpi="5.7600002"
   inkscape:export-ydpi="5.7600002"><metadata
   id="metadata22"><rdf:RDF><cc:Work
       rdf:about=""><dc:format>image/svg+xml</dc:format><dc:type
         rdf:resource="http://purl.org/dc/dcmitype/StillImage" /><dc:title></dc:title></cc:Work></rdf:RDF></metadata><sodipodi:namedview
   pagecolor="#ffffff"
   bordercolor="#666666"
   borderopacity="1"
   objecttolerance="10"
   gridtolerance="10"
   guidetolerance="10"
   inkscape:pageopacity="0"
   inkscape:pageshadow="2"
   inkscape:window-width="640"
   inkscape:window-height="480"
   id="namedview20"
   showgrid="false"
   inkscape:zoom="0.472"
   inkscape:cx="250"
   inkscape:cy="250"
   inkscape:window-x="4483"
   inkscape:window-y="589"
   inkscape:window-maximized="0"
   inkscape:current-layer="svg2" />
 <defs
   id="defs4">
  <style
   type="text/css"
   id="style6">
   
    .str2 {stroke:#3B9CFF;stroke-width:22.21}
    .str1 {stroke:#0099FF;stroke-width:15}
    .str4 {stroke:#666666;stroke-width:25}
    .str0 {stroke:#0099FF;stroke-width:30}
    .str3 {stroke:#0099FF;stroke-width:40}
    .fil0 {fill:none}
    .fil1 {fill:#0099FF}
   
  </style>
 </defs>
 <g
   id="Layer_x0020_1">
  <metadata
   id="SnipMaster" />
  <line
   class="fil0 str0"
   x1="250"
   y1="50"
   x2="250"
   y2="375"
   id="line10" />
  <path
   class="fil0 str1"
   d="M310 305l-122 0m122 -185l-122 0m107 93l-92 0"
   id="path12" />
  
  <line
   class="fil0 str3"
   x1="375"
   y1="40"
   x2="120"
   y2="40"
   id="line14" />
  <polygon
   class="fil1"
   points="250,453 275,409 301,365 250,365 199,365 225,409 "
   id="polygon16" />
  <line
   class="fil0 str4"
   x1="450"
   y1="470"
   x2="45"
   y2="470"
   id="line18" />
 </g>
</svg>