<?xml version="1.0" encoding="UTF-8" standalone="no"?>
<svg
   xmlns:dc="http://purl.org/dc/elements/1.1/"
   xmlns:cc="http://creativecommons.org/ns#"
   xmlns:rdf="http://www.w3.org/1999/02/22-rdf-syntax-ns#"
   xmlns:svg="http://www.w3.org/2000/svg"
   xmlns="http://www.w3.org/2000/svg"
   xmlns:sodipodi="http://sodipodi.sourceforge.net/DTD/sodipodi-0.dtd"
   xmlns:inkscape="http://www.inkscape.org/namespaces/inkscape"
   xml:space="preserve"
   width="100%"
   height="100%"
   version="1.1"
   style="shape-rendering:geometricPrecision; text-rendering:geometricPrecision; image-rendering:optimizeQuality; fill-rule:evenodd; clip-rule:evenodd"
   viewBox="0 0 500 500"
   id="svg29765"
   inkscape:version="0.48.5 r10040"
   sodipodi:docname="geometry_distance.svg"
   inkscape:export-filename="C:\Users\PeterSchregle\Desktop\contrast.png"
   inkscape:export-xdpi="5.7600002"
   inkscape:export-ydpi="5.7600002"><metadata
   id="metadata29779"><rdf:RDF><cc:Work
       rdf:about=""><dc:format>image/svg+xml</dc:format><dc:type
         rdf:resource="http://purl.org/dc/dcmitype/StillImage" /><dc:title /></cc:Work></rdf:RDF></metadata><sodipodi:namedview
   pagecolor="#ffffff"
   bordercolor="#666666"
   borderopacity="1"
   objecttolerance="10"
   gridtolerance="10"
   guidetolerance="10"
   inkscape:pageopacity="0"
   inkscape:pageshadow="2"
   inkscape:window-width="2560"
   inkscape:window-height="1537"
   id="namedview29777"
   showgrid="false"
   inkscape:zoom="1.89"
   inkscape:cx="336.57526"
   inkscape:cy="221.89835"
   inkscape:window-x="2872"
   inkscape:window-y="-8"
   inkscape:window-maximized="1"
   inkscape:current-layer="svg29765" />
 <defs
   id="defs29767">
  <style
   type="text/css"
   id="style29769">
   
    .str0 {stroke:#434242;stroke-width:30}
    .fil0 {fill:none}
    .fil1 {fill:#434242}
   
  </style>
 
  
  
  
 </defs>
 
<g
   transform="translate(-2630.7837,-2380.4233)"
   style="fill-rule:evenodd"
   id="Layer_x0020_1"><metadata
     id="CorelCorpID_0Corel-Layer" /><path
     inkscape:connector-curvature="0"
     class="fil0"
     d="M 4500,2300 3500,1300 c -50,-50 -100,-100 -200,-100 -100,0 -200,100 -200,200 l 0,500 c 0,50 -50,100 -100,100 l -2500,0 c -50,0 -100,50 -100,100 l 0,800 c 0,50 50,100 100,100 l 2500,0 c 50,0 100,50 100,100 l 0,500 c 0,100 100,200 200,200 100,0 150,-50 200,-100 L 4500,2700 c 135,-135 135,-265 0,-400 z"
     id="path5347"
     style="fill:none" /></g><g
   transform="translate(-2906.9742,-2533.3333)"
   style="fill-rule:evenodd"
   id="Layer_x0020_1-1"><metadata
     id="CorelCorpID_0Corel-Layer-7" /><path
     inkscape:connector-curvature="0"
     class="fil0"
     d="M 4500,2300 3500,1300 c -50,-50 -100,-100 -200,-100 -100,0 -200,100 -200,200 l 0,500 c 0,50 -50,100 -100,100 l -2500,0 c -50,0 -100,50 -100,100 l 0,800 c 0,50 50,100 100,100 l 2500,0 c 50,0 100,50 100,100 l 0,500 c 0,100 100,200 200,200 100,0 150,-50 200,-100 L 4500,2700 c 135,-135 135,-265 0,-400 z"
     id="path5347-4"
     style="fill:none" /></g><g
   transform="translate(-2911.207,-2531.746)"
   style="fill-rule:evenodd"
   id="Layer_x0020_1-0"><metadata
     id="CorelCorpID_0Corel-Layer-9" /><path
     inkscape:connector-curvature="0"
     class="fil0"
     d="M 4500,2300 3500,1300 c -50,-50 -100,-100 -200,-100 -100,0 -200,100 -200,200 l 0,500 c 0,50 -50,100 -100,100 l -2500,0 c -50,0 -100,50 -100,100 l 0,800 c 0,50 50,100 100,100 l 2500,0 c 50,0 100,50 100,100 l 0,500 c 0,100 100,200 200,200 100,0 150,-50 200,-100 L 4500,2700 c 135,-135 135,-265 0,-400 z"
     id="path5347-48"
     style="fill:none" /></g><rect
   style="fill:#666666;fill-opacity:1;stroke:none"
   id="rect5433"
   width="200"
   height="300"
   x="241.55751"
   y="-58.563526"
   ry="50"
   rx="50"
   transform="matrix(0.8660254,0.5,-0.5,0.8660254,0,0)" /><path
   style="fill:#0099ff;fill-opacity:1;fill-rule:evenodd"
   inkscape:connector-curvature="0"
   id="path5347-8-4"
   d="m 337.1114,309.09541 1.6009,45.33584 c 0.08,2.26676 0.1601,4.53359 2.24322,5.73628 2.08317,1.20273 6.08941,-0.92542 8.01248,-4.25629 l 9.6154,-16.65436 c 0.96153,-1.66542 2.96468,-2.72949 4.00625,-2.12815 l 52.07912,30.0679 c 1.04162,0.60138 3.0447,-0.46268 4.00624,-2.12813 l 15.3846,-26.64691 c 0.96156,-1.66546 0.88153,-3.93222 -0.16008,-4.53359 L 381.8204,303.82011 c -1.04156,-0.60136 -1.12162,-2.86817 -0.16009,-4.53359 l 9.6154,-16.65436 c 1.92307,-3.33087 1.76297,-7.86444 -0.32019,-9.06717 -2.08312,-1.20269 -4.08629,-0.13861 -6.08937,0.92546 l -40.06245,21.28151 c -5.40842,2.873 -7.90842,7.20311 -7.6923,13.32345 z"
   class="fil0" /><path
   style="fill:#0099ff;fill-opacity:1;fill-rule:evenodd"
   inkscape:connector-curvature="0"
   id="path5347-8-4-5"
   d="m 163.28915,190.97446 -1.6009,-45.33584 c -0.08,-2.26675 -0.16009,-4.53358 -2.24322,-5.73627 -2.08316,-1.20273 -6.0894,0.92542 -8.01248,4.25629 l -9.61539,16.65436 c -0.96153,1.66542 -2.96469,2.72948 -4.00626,2.12815 l -52.079119,-30.0679 c -1.041607,-0.60138 -3.044704,0.46268 -4.006245,2.12812 l -15.384601,26.64691 c -0.961553,1.66546 -0.881515,3.93223 0.160093,4.53361 l 52.079122,30.06788 c 1.04156,0.60136 1.12163,2.86818 0.1601,4.53359 l -9.6154,16.65437 c -1.92307,3.33087 -1.76298,7.86443 0.32018,9.06716 2.08312,1.20269 4.08629,0.1386 6.08938,-0.92546 l 40.06244,-21.28151 c 5.40842,-2.873 7.90842,-7.20312 7.6923,-13.32346 z"
   class="fil0" /></svg>