<?xml version="1.0" encoding="UTF-8" standalone="no"?>
<!-- Creator: CorelDRAW X6 -->

<svg
   xmlns:dc="http://purl.org/dc/elements/1.1/"
   xmlns:cc="http://creativecommons.org/ns#"
   xmlns:rdf="http://www.w3.org/1999/02/22-rdf-syntax-ns#"
   xmlns:svg="http://www.w3.org/2000/svg"
   xmlns="http://www.w3.org/2000/svg"
   xmlns:xlink="http://www.w3.org/1999/xlink"
   xmlns:sodipodi="http://sodipodi.sourceforge.net/DTD/sodipodi-0.dtd"
   xmlns:inkscape="http://www.inkscape.org/namespaces/inkscape"
   xml:space="preserve"
   width="100%"
   height="100%"
   version="1.1"
   style="shape-rendering:geometricPrecision; text-rendering:geometricPrecision; image-rendering:optimizeQuality; fill-rule:evenodd; clip-rule:evenodd"
   viewBox="0 0 500 500"
   id="svg2"
   inkscape:version="0.48.4 r9939"
   sodipodi:docname="max.svg"
   inkscape:export-filename="C:\Users\PeterSchregle\Desktop\max.png"
   inkscape:export-xdpi="5.7600002"
   inkscape:export-ydpi="5.7600002"><metadata
   id="metadata25"><rdf:RDF><cc:Work
       rdf:about=""><dc:format>image/svg+xml</dc:format><dc:type
         rdf:resource="http://purl.org/dc/dcmitype/StillImage" /><dc:title></dc:title></cc:Work></rdf:RDF></metadata><sodipodi:namedview
   pagecolor="#ffffff"
   bordercolor="#666666"
   borderopacity="1"
   objecttolerance="10"
   gridtolerance="10"
   guidetolerance="10"
   inkscape:pageopacity="0"
   inkscape:pageshadow="2"
   inkscape:window-width="1252"
   inkscape:window-height="480"
   id="namedview23"
   showgrid="false"
   inkscape:zoom="0.472"
   inkscape:cx="-80.508475"
   inkscape:cy="250"
   inkscape:window-x="4095"
   inkscape:window-y="895"
   inkscape:window-maximized="0"
   inkscape:current-layer="svg2" />
 <defs
   id="defs4">
  <style
   type="text/css"
   id="style6">
   
    .str0 {stroke:#3B9CFF;stroke-width:0.01}
    .str1 {stroke:#2B2A29;stroke-width:10}
    .fil0 {fill:none}
    .fil2 {fill:#008DEB;fill-rule:nonzero}
    .fil1 {fill:url(#id0)}
   
  </style>
  <linearGradient
   id="id0"
   gradientUnits="userSpaceOnUse"
   x1="470.005"
   y1="215.005"
   x2="30.003"
   y2="215.005">
   <stop
   offset="0"
   style="stop-color:#E7E7E7"
   id="stop9" />
   <stop
   offset="0.478431"
   style="stop-color:white"
   id="stop11" />
   <stop
   offset="1"
   style="stop-color:#E7E7E7"
   id="stop13" />
  </linearGradient>
 
  
  
  
  
 <linearGradient
   inkscape:collect="always"
   xlink:href="#id0"
   id="linearGradient2993"
   gradientUnits="userSpaceOnUse"
   x1="470.005"
   y1="215.005"
   x2="30.003"
   y2="215.005" /></defs>
 <rect
   style="fill:none;stroke:#3b9cff;stroke-width:0.01"
   y="0"
   x="0"
   id="rect17"
   height="500"
   width="500"
   class="fil0 str0" /><path
   inkscape:connector-curvature="0"
   style="fill:url(#linearGradient2993);stroke:#777777;stroke-width:10;stroke-opacity:1"
   id="path19"
   d="M 440,380 60,380 C 44,380 30,367 30,350 l 0,-200 c 0,-16 14,-30 30,-30 l 140,0 50,-70 50,70 140,0 c 17,0 30,14 30,30 l 0,200 c 0,17 -13,30 -30,30 z"
   class="fil1 str1" /><path
   style="fill:#008deb;fill-rule:nonzero"
   inkscape:connector-curvature="0"
   id="path21"
   d="m 118,190 27,84 0,0 27,-84 37,0 0,120 -28,0 0,-30 3,-54 -1,-1 -29,85 -18,0 -29,-84 0,0 2,54 0,30 -27,0 0,-120 36,0 z m 167,97 -37,0 -7,23 -28,0 39,-120 29,0 39,120 -28,0 -7,-23 z m -31,-22 25,0 -12,-43 -1,0 -12,43 z m 118,-34 20,-41 32,0 -34,60 36,60 -33,0 -21,-41 -20,41 -32,0 35,-60 -34,-60 32,0 19,41 z"
   class="fil2" />
</svg>