<?xml version="1.0" encoding="UTF-8" standalone="no"?>
<!-- Creator: Snipicons.com -->

<svg
   xmlns:dc="http://purl.org/dc/elements/1.1/"
   xmlns:cc="http://creativecommons.org/ns#"
   xmlns:rdf="http://www.w3.org/1999/02/22-rdf-syntax-ns#"
   xmlns:svg="http://www.w3.org/2000/svg"
   xmlns="http://www.w3.org/2000/svg"
   xmlns:sodipodi="http://sodipodi.sourceforge.net/DTD/sodipodi-0.dtd"
   xmlns:inkscape="http://www.inkscape.org/namespaces/inkscape"
   xml:space="preserve"
   width="100%"
   height="100%"
   version="1.1"
   style="shape-rendering:geometricPrecision; text-rendering:geometricPrecision; image-rendering:optimizeQuality; fill-rule:evenodd; clip-rule:evenodd"
   viewBox="0 0 500 500"
   id="svg2"
   inkscape:version="0.48.4 r9939"
   sodipodi:docname="mm-Play.svg"
   inkscape:export-filename="C:\Users\PeterSchregle\Desktop\nVision Icons\mm-Play.png"
   inkscape:export-xdpi="5.7600002"
   inkscape:export-ydpi="5.7600002"><metadata
   id="metadata23"><rdf:RDF><cc:Work
       rdf:about=""><dc:format>image/svg+xml</dc:format><dc:type
         rdf:resource="http://purl.org/dc/dcmitype/StillImage" /><dc:title></dc:title></cc:Work></rdf:RDF></metadata><sodipodi:namedview
   pagecolor="#ffffff"
   bordercolor="#666666"
   borderopacity="1"
   objecttolerance="10"
   gridtolerance="10"
   guidetolerance="10"
   inkscape:pageopacity="0"
   inkscape:pageshadow="2"
   inkscape:window-width="640"
   inkscape:window-height="480"
   id="namedview21"
   showgrid="false"
   inkscape:zoom="0.472"
   inkscape:cx="250"
   inkscape:cy="250"
   inkscape:window-x="4381"
   inkscape:window-y="656"
   inkscape:window-maximized="0"
   inkscape:current-layer="svg2" />
 <defs
   id="defs4">
  <style
   type="text/css"
   id="style6">
   
    .str0 {stroke:#3B9CFF;stroke-width:22.21}
    .str1 {stroke:#434242;stroke-width:10;stroke-linejoin:round}
    .fil0 {fill:none}
    .fil2 {fill:#666666}
    .fil1 {fill:url(#id0)}
   
  </style>
  <linearGradient
   id="id0"
   gradientUnits="userSpaceOnUse"
   x1="250.09"
   y1="380.193"
   x2="250.09"
   y2="119.817">
   <stop
   offset="0"
   style="stop-color:#3B9CFF"
   id="stop9" />
   <stop
   offset="0.509804"
   style="stop-color:#1E8EFF"
   id="stop11" />
   <stop
   offset="1"
   style="stop-color:#007FFF"
   id="stop13" />
  </linearGradient>
 </defs>
 <g
   id="Layer_x0020_1">
  <metadata
   id="SnipMaster" />
  
  <path
   class="fil1 str1"
   d="M203 420c-7,8 -15,16 -31,16 -15,0 -31,-16 -31,-31 0,-40 0,-270 0,-310 0,-15 16,-31 31,-31 16,0 24,8 31,16l140 139c8,8 15,15 16,31 0,14 -6,21 -16,31l-140 139z"
   id="path17" />
  <rect
   class="fil2"
   x="370"
   y="60"
   width="49.998"
   height="370.002"
   rx="10"
   ry="5"
   id="rect19" />
 </g>
</svg>