<?xml version="1.0" encoding="UTF-8" standalone="no"?>
<!-- Creator: Snipicons.com -->

<svg
   xmlns:dc="http://purl.org/dc/elements/1.1/"
   xmlns:cc="http://creativecommons.org/ns#"
   xmlns:rdf="http://www.w3.org/1999/02/22-rdf-syntax-ns#"
   xmlns:svg="http://www.w3.org/2000/svg"
   xmlns="http://www.w3.org/2000/svg"
   xmlns:sodipodi="http://sodipodi.sourceforge.net/DTD/sodipodi-0.dtd"
   xmlns:inkscape="http://www.inkscape.org/namespaces/inkscape"
   xml:space="preserve"
   width="100%"
   height="100%"
   version="1.1"
   style="shape-rendering:geometricPrecision; text-rendering:geometricPrecision; image-rendering:optimizeQuality; fill-rule:evenodd; clip-rule:evenodd"
   viewBox="0 0 500 500"
   id="svg2"
   inkscape:version="0.48.5 r10040"
   sodipodi:docname="point.svg"
   inkscape:export-filename="C:\Users\PeterSchregle\Desktop\nVision Icons\line_segment.png"
   inkscape:export-xdpi="5.7600002"
   inkscape:export-ydpi="5.7600002"><metadata
   id="metadata18"><rdf:RDF><cc:Work
       rdf:about=""><dc:format>image/svg+xml</dc:format><dc:type
         rdf:resource="http://purl.org/dc/dcmitype/StillImage" /><dc:title /></cc:Work></rdf:RDF></metadata><sodipodi:namedview
   pagecolor="#ffffff"
   bordercolor="#666666"
   borderopacity="1"
   objecttolerance="10"
   gridtolerance="10"
   guidetolerance="10"
   inkscape:pageopacity="0"
   inkscape:pageshadow="2"
   inkscape:window-width="640"
   inkscape:window-height="480"
   id="namedview16"
   showgrid="false"
   inkscape:zoom="0.472"
   inkscape:cx="-3.1779661"
   inkscape:cy="250"
   inkscape:window-x="4520"
   inkscape:window-y="573"
   inkscape:window-maximized="0"
   inkscape:current-layer="svg2" />
 <defs
   id="defs4">
  <style
   type="text/css"
   id="style6">
   
    .str2 {stroke:#3B9CFF;stroke-width:22.21}
    .str1 {stroke:#434242;stroke-width:5}
    .str0 {stroke:#727271;stroke-width:20}
    .fil0 {fill:none}
    .fil1 {fill:#0099FF}
   
  </style>
 
  
  
  
  
  
 </defs>
 <rect
   style="fill:#0099ff;stroke:#434242;stroke-width:2.26139832"
   y="-280.00009"
   x="219.99998"
   id="rect14"
   height="60.000202"
   width="60.000023"
   transform="matrix(0,1,-1,0,0,0)"
   class="fil1 str1" />
</svg>