<?xml version="1.0" encoding="UTF-8"?>
<!DOCTYPE svg PUBLIC "-//W3C//DTD SVG 1.1//EN" "http://www.w3.org/Graphics/SVG/1.1/DTD/svg11.dtd">
<!-- Creator: Snipicons.com -->
<svg xmlns="http://www.w3.org/2000/svg" xml:space="preserve" width="100%" height="100%" version="1.1" style="shape-rendering:geometricPrecision; text-rendering:geometricPrecision; image-rendering:optimizeQuality; fill-rule:evenodd; clip-rule:evenodd"
viewBox="0 0 500 500"
 xmlns:xlink="http://www.w3.org/1999/xlink">
 <defs>
  <style type="text/css">
   <![CDATA[
    .str0 {stroke:#3B9CFF;stroke-width:22.21}
    .str4 {stroke:#434242;stroke-width:5}
    .str3 {stroke:#434242;stroke-width:10}
    .str2 {stroke:#27A9FF;stroke-width:10}
    .str1 {stroke:#62C0FF;stroke-width:10}
    .str5 {stroke:gray;stroke-width:10;stroke-linecap:round}
    .fil0 {fill:none}
    .fil7 {fill:#434242}
    .fil4 {fill:#27A9FF}
    .fil3 {fill:#62C0FF}
    .fil1 {fill:#9DD8FF}
    .fil2 {fill:white}
    .fil5 {fill:url(#id0)}
    .fil6 {fill:url(#id1)}
   ]]>
  </style>
  <linearGradient id="id0" gradientUnits="userSpaceOnUse" x1="318.998" y1="158.379" x2="318.998" y2="466.017">
   <stop offset="0" style="stop-color:#0081D8"/>
   <stop offset="1" style="stop-color:#27A9FF"/>
  </linearGradient>
  <linearGradient id="id1" gradientUnits="userSpaceOnUse" x1="318.998" y1="318.606" x2="318.998" y2="466.017">
   <stop offset="0" style="stop-color:white"/>
   <stop offset="1" style="stop-color:#E7E7E7"/>
  </linearGradient>
 </defs>
 <g id="Layer_x0020_1">
  <metadata id="SnipMaster"/>
  
  <path class="fil1 str1" d="M53 30l276 0 29 29 0 276c0,8 -6,15 -14,15l-291 0c-8,0 -15,-7 -15,-15l0 -290c0,-8 7,-15 15,-15z"/>
  <path class="fil2 str1" d="M89 30l219 0 0 95c0,8 -7,14 -15,14l-189 0c-8,0 -15,-6 -15,-14l0 -95z"/>
  <rect class="fil3" x="228" y="30" width="50.9087" height="79.9987"/>
  <path class="fil3 str2" d="M113 90l276 0 29 30 0 276c0,8 -7,14 -15,14l-290 0c-8,0 -15,-6 -15,-14l0 -291c0,-8 7,-15 15,-15z"/>
  <path class="fil2 str2" d="M149 90l218 0 0 95c0,8 -6,15 -14,15l-190 0c-8,0 -14,-7 -14,-15l0 -95z"/>
  <rect class="fil4" x="287" y="90" width="50.9087" height="79.9987"/>
  <g id="_1228959984">
   <path class="fil5 str3" d="M173 152l277 0 29 29 0 277c0,8 -6,14 -14,14l-292 0c-8,0 -14,-6 -14,-14l0 -291c0,-8 6,-15 14,-15z"/>
   <path class="fil2 str3" d="M210 152l218 0 0 95c0,8 -6,14 -14,14l-190 0c-8,0 -14,-6 -14,-14l0 -95z"/>
   <rect class="fil6 str4" x="195" y="312" width="248" height="160"/>
   <rect class="fil7" x="348" y="152" width="50.9819" height="80.1137"/>
   <path class="fil0 str5" d="M217 349l204 0m-204 36l204 0m-204 36l204 0"/>
  </g>
 </g>
</svg>
