<?xml version="1.0" encoding="UTF-8" standalone="no"?>
<!-- Creator: Snipicons.com -->

<svg
   xmlns:dc="http://purl.org/dc/elements/1.1/"
   xmlns:cc="http://creativecommons.org/ns#"
   xmlns:rdf="http://www.w3.org/1999/02/22-rdf-syntax-ns#"
   xmlns:svg="http://www.w3.org/2000/svg"
   xmlns="http://www.w3.org/2000/svg"
   xmlns:xlink="http://www.w3.org/1999/xlink"
   xmlns:sodipodi="http://sodipodi.sourceforge.net/DTD/sodipodi-0.dtd"
   xmlns:inkscape="http://www.inkscape.org/namespaces/inkscape"
   xml:space="preserve"
   width="100%"
   height="100%"
   version="1.1"
   style="shape-rendering:geometricPrecision; text-rendering:geometricPrecision; image-rendering:optimizeQuality; fill-rule:evenodd; clip-rule:evenodd"
   viewBox="0 0 500 500"
   id="svg2"
   inkscape:version="0.48.5 r10040"
   sodipodi:docname="sub_pipeline_transform.svg"
   inkscape:export-filename="C:\Users\PeterSchregle\Desktop\sub_pipeline_transform.png"
   inkscape:export-xdpi="5.7600002"
   inkscape:export-ydpi="5.7600002"><metadata
   id="metadata36"><rdf:RDF><cc:Work
       rdf:about=""><dc:format>image/svg+xml</dc:format><dc:type
         rdf:resource="http://purl.org/dc/dcmitype/StillImage" /><dc:title></dc:title></cc:Work></rdf:RDF></metadata><sodipodi:namedview
   pagecolor="#ffffff"
   bordercolor="#666666"
   borderopacity="1"
   objecttolerance="10"
   gridtolerance="10"
   guidetolerance="10"
   inkscape:pageopacity="0"
   inkscape:pageshadow="2"
   inkscape:window-width="2560"
   inkscape:window-height="1537"
   id="namedview34"
   showgrid="false"
   inkscape:zoom="0.944"
   inkscape:cx="1002.3125"
   inkscape:cy="-39.385736"
   inkscape:window-x="5432"
   inkscape:window-y="-8"
   inkscape:window-maximized="1"
   inkscape:current-layer="svg2" />
 <defs
   id="defs4">
  <style
   type="text/css"
   id="style6">
   
    .str0 {stroke:#3B9CFF;stroke-width:22.21}
    .str1 {stroke:#434242;stroke-width:10;stroke-linejoin:round}
    .fil0 {fill:none}
    .fil4 {fill:#62C0FF;fill-rule:nonzero}
    .fil3 {fill:#FF7979;fill-rule:nonzero}
    .fil1 {fill:url(#id0)}
    .fil2 {fill:url(#id1)}
   
  </style>
  <linearGradient
   id="id0"
   gradientUnits="userSpaceOnUse"
   x1="252.552"
   y1="472.575"
   x2="247.456"
   y2="192.431">
   <stop
   offset="0"
   style="stop-color:#B9B9B9"
   id="stop9" />
   <stop
   offset="0.121569"
   style="stop-color:gainsboro"
   id="stop11" />
   <stop
   offset="0.360784"
   style="stop-color:#F3F3F3"
   id="stop13" />
   <stop
   offset="1"
   style="stop-color:white"
   id="stop15" />
  </linearGradient>
  <linearGradient
   id="id1"
   gradientUnits="userSpaceOnUse"
   x1="250.004"
   y1="176.803"
   x2="250.004"
   y2="38.205">
   <stop
   offset="0"
   style="stop-color:#3BB0FF"
   id="stop18" />
   <stop
   offset="1"
   style="stop-color:#008DEB"
   id="stop20" />
  </linearGradient>
 
  
  
  
  
  
  
  
 <linearGradient
   inkscape:collect="always"
   xlink:href="#id1"
   id="linearGradient3001"
   gradientUnits="userSpaceOnUse"
   x1="250.004"
   y1="176.803"
   x2="250.004"
   y2="38.205" /><linearGradient
   inkscape:collect="always"
   xlink:href="#id0"
   id="linearGradient3004"
   gradientUnits="userSpaceOnUse"
   x1="252.552"
   y1="472.575"
   x2="247.456"
   y2="192.431" /></defs>
 <path
   inkscape:connector-curvature="0"
   style="fill:url(#linearGradient3004)"
   id="path24"
   d="m 440,190 0,194 c 0,18 -15,33 -33,33 l -101,0 -56,58 -56,-58 -101,0 C 75,417 60,402 60,384 l 0,-194 380,0 z"
   class="fil1" /><path
   inkscape:connector-curvature="0"
   style="fill:url(#linearGradient3001)"
   id="path26"
   d="m 93,83 101,0 56,-58 56,58 101,0 c 18,0 33,15 33,33 l 0,74 -380,0 0,-74 C 60,98 75,83 93,83 z"
   class="fil2" /><path
   style="fill:none;stroke:#434242;stroke-width:10;stroke-linejoin:round"
   inkscape:connector-curvature="0"
   id="path28"
   d="m 93,83 101,0 56,-58 56,58 101,0 c 18,0 33,15 33,33 l 0,268 c 0,18 -15,33 -33,33 l -101,0 -56,58 -56,-58 -101,0 C 75,417 60,402 60,384 L 60,116 C 60,98 75,83 93,83 z"
   class="fil0 str1" />
<rect
   style="fill:#4382c0;fill-opacity:1;fill-rule:evenodd"
   id="rect7427"
   height="40.889824"
   width="71.55719"
   y="335.38138"
   x="90.280746"
   class="fil0" /><rect
   style="fill:#4382c0;fill-opacity:1;fill-rule:evenodd"
   id="rect7433"
   height="40.889824"
   width="71.55719"
   y="274.0466"
   x="90.280746"
   class="fil0" /><rect
   style="fill:#4382c0;fill-opacity:1;fill-rule:evenodd"
   id="rect7441"
   height="40.889824"
   width="71.55719"
   y="212.71185"
   x="90.280746"
   class="fil0" /><path
   sodipodi:type="arc"
   style="fill:#c0c042;fill-opacity:1;fill-rule:evenodd;stroke:none;stroke-opacity:1"
   id="path3809"
   sodipodi:cx="381.09109"
   sodipodi:cy="230.79979"
   sodipodi:rx="35.487289"
   sodipodi:ry="19.729874"
   d="m 416.57838,230.79979 a 35.487289,19.729874 0 1 1 -70.97457,0 35.487289,19.729874 0 1 1 70.97457,0 z" /><path
   transform="translate(7.0286297e-6,60.51377)"
   sodipodi:type="arc"
   style="fill:#c0c042;fill-opacity:1;fill-rule:evenodd;stroke:none"
   id="path3809-0"
   sodipodi:cx="381.09109"
   sodipodi:cy="230.79979"
   sodipodi:rx="35.487289"
   sodipodi:ry="19.729874"
   d="m 416.57838,230.79979 a 35.487289,19.729874 0 1 1 -70.97457,0 35.487289,19.729874 0 1 1 70.97457,0 z" /><path
   transform="translate(0.52966836,122.74894)"
   sodipodi:type="arc"
   style="fill:#c0c042;fill-opacity:1;fill-rule:evenodd;stroke:none"
   id="path3809-0-9"
   sodipodi:cx="381.09109"
   sodipodi:cy="230.79979"
   sodipodi:rx="35.487289"
   sodipodi:ry="19.729874"
   d="m 416.57838,230.79979 a 35.487289,19.729874 0 1 1 -70.97457,0 35.487289,19.729874 0 1 1 70.97457,0 z" /><g
   id="g3863"
   transform="matrix(0.63258692,0,0,0.75952172,93.1292,43.939221)"><polygon
     class="fil3"
     points="222,235 279,334 312,334 312,308 371,346 312,384 312,359 264,359 207,261 118,261 118,235 "
     id="polygon30"
     style="fill:#ff7979;fill-rule:nonzero"
     transform="translate(11.855933,32.184322)" /><polygon
     class="fil4"
     points="222,359 279,261 312,261 312,286 371,248 312,210 312,235 264,235 207,334 118,334 118,359 "
     id="polygon32"
     style="fill:#62c0ff;fill-rule:nonzero"
     transform="translate(11.855933,32.184322)" /></g></svg>