<?xml version="1.0" encoding="UTF-8" standalone="no"?>
<!-- Creator: Snipicons.com -->

<svg
   xmlns:dc="http://purl.org/dc/elements/1.1/"
   xmlns:cc="http://creativecommons.org/ns#"
   xmlns:rdf="http://www.w3.org/1999/02/22-rdf-syntax-ns#"
   xmlns:svg="http://www.w3.org/2000/svg"
   xmlns="http://www.w3.org/2000/svg"
   xmlns:sodipodi="http://sodipodi.sourceforge.net/DTD/sodipodi-0.dtd"
   xmlns:inkscape="http://www.inkscape.org/namespaces/inkscape"
   xml:space="preserve"
   width="100%"
   height="100%"
   version="1.1"
   style="shape-rendering:geometricPrecision; text-rendering:geometricPrecision; image-rendering:optimizeQuality; fill-rule:evenodd; clip-rule:evenodd"
   viewBox="0 0 500 500"
   id="svg2"
   inkscape:version="0.48.4 r9939"
   sodipodi:docname="sub_pipeline.svg"
   inkscape:export-filename="C:\Users\PeterSchregle\Desktop\nVision Icons\sub_pipeline.png"
   inkscape:export-xdpi="5.7600002"
   inkscape:export-ydpi="5.7600002"><metadata
   id="metadata36"><rdf:RDF><cc:Work
       rdf:about=""><dc:format>image/svg+xml</dc:format><dc:type
         rdf:resource="http://purl.org/dc/dcmitype/StillImage" /><dc:title></dc:title></cc:Work></rdf:RDF></metadata><sodipodi:namedview
   pagecolor="#ffffff"
   bordercolor="#666666"
   borderopacity="1"
   objecttolerance="10"
   gridtolerance="10"
   guidetolerance="10"
   inkscape:pageopacity="0"
   inkscape:pageshadow="2"
   inkscape:window-width="640"
   inkscape:window-height="480"
   id="namedview34"
   showgrid="false"
   inkscape:zoom="0.472"
   inkscape:cx="250"
   inkscape:cy="250"
   inkscape:window-x="4620"
   inkscape:window-y="789"
   inkscape:window-maximized="0"
   inkscape:current-layer="svg2" />
 <defs
   id="defs4">
  <style
   type="text/css"
   id="style6">
   
    .str0 {stroke:#3B9CFF;stroke-width:22.21}
    .str1 {stroke:#434242;stroke-width:10;stroke-linejoin:round}
    .fil0 {fill:none}
    .fil4 {fill:#62C0FF;fill-rule:nonzero}
    .fil3 {fill:#FF7979;fill-rule:nonzero}
    .fil1 {fill:url(#id0)}
    .fil2 {fill:url(#id1)}
   
  </style>
  <linearGradient
   id="id0"
   gradientUnits="userSpaceOnUse"
   x1="252.552"
   y1="472.575"
   x2="247.456"
   y2="192.431">
   <stop
   offset="0"
   style="stop-color:#B9B9B9"
   id="stop9" />
   <stop
   offset="0.121569"
   style="stop-color:gainsboro"
   id="stop11" />
   <stop
   offset="0.360784"
   style="stop-color:#F3F3F3"
   id="stop13" />
   <stop
   offset="1"
   style="stop-color:white"
   id="stop15" />
  </linearGradient>
  <linearGradient
   id="id1"
   gradientUnits="userSpaceOnUse"
   x1="250.004"
   y1="176.803"
   x2="250.004"
   y2="38.205">
   <stop
   offset="0"
   style="stop-color:#3BB0FF"
   id="stop18" />
   <stop
   offset="1"
   style="stop-color:#008DEB"
   id="stop20" />
  </linearGradient>
 </defs>
 <g
   id="Layer_x0020_1">
  <metadata
   id="SnipMaster" />
  
  <path
   class="fil1"
   d="M440 190l0 194c0,18 -15,33 -33,33l-101 0 -56 58 -56 -58 -101 0c-18,0 -33,-15 -33,-33l0 -194 380 0z"
   id="path24" />
  <path
   class="fil2"
   d="M93 83l101 0 56 -58 56 58 101 0c18,0 33,15 33,33l0 74 -380 0 0 -74c0,-18 15,-33 33,-33z"
   id="path26" />
  <path
   class="fil0 str1"
   d="M93 83l101 0 56 -58 56 58 101 0c18,0 33,15 33,33l0 268c0,18 -15,33 -33,33l-101 0 -56 58 -56 -58 -101 0c-18,0 -33,-15 -33,-33l0 -268c0,-18 15,-33 33,-33z"
   id="path28" />
  <polygon
   class="fil3"
   points="118,235 222,235 279,334 312,334 312,308 371,346 312,384 312,359 264,359 207,261 118,261 "
   id="polygon30" />
  <polygon
   class="fil4"
   points="118,359 222,359 279,261 312,261 312,286 371,248 312,210 312,235 264,235 207,334 118,334 "
   id="polygon32" />
 </g>
</svg>