<?xml version="1.0" encoding="UTF-8" standalone="no"?>
<!-- Creator: CorelDRAW X6 -->

<svg
   xmlns:dc="http://purl.org/dc/elements/1.1/"
   xmlns:cc="http://creativecommons.org/ns#"
   xmlns:rdf="http://www.w3.org/1999/02/22-rdf-syntax-ns#"
   xmlns:svg="http://www.w3.org/2000/svg"
   xmlns="http://www.w3.org/2000/svg"
   xmlns:sodipodi="http://sodipodi.sourceforge.net/DTD/sodipodi-0.dtd"
   xmlns:inkscape="http://www.inkscape.org/namespaces/inkscape"
   xml:space="preserve"
   width="100%"
   height="100%"
   version="1.1"
   shape-rendering="geometricPrecision"
   text-rendering="geometricPrecision"
   image-rendering="optimizeQuality"
   fill-rule="evenodd"
   clip-rule="evenodd"
   viewBox="0 0 500 500"
   id="svg2"
   inkscape:version="0.48.5 r10040"
   sodipodi:docname="webcam.svg"
   inkscape:export-filename="C:\Users\PeterSchregle\Desktop\webcam.png"
   inkscape:export-xdpi="5.7600002"
   inkscape:export-ydpi="5.7600002"><metadata
   id="metadata65"><rdf:RDF><cc:Work
       rdf:about=""><dc:format>image/svg+xml</dc:format><dc:type
         rdf:resource="http://purl.org/dc/dcmitype/StillImage" /><dc:title></dc:title></cc:Work></rdf:RDF></metadata><sodipodi:namedview
   pagecolor="#ffffff"
   bordercolor="#666666"
   borderopacity="1"
   objecttolerance="10"
   gridtolerance="10"
   guidetolerance="10"
   inkscape:pageopacity="0"
   inkscape:pageshadow="2"
   inkscape:window-width="640"
   inkscape:window-height="480"
   id="namedview63"
   showgrid="false"
   inkscape:zoom="0.472"
   inkscape:cx="250"
   inkscape:cy="250"
   inkscape:window-x="4402"
   inkscape:window-y="220"
   inkscape:window-maximized="0"
   inkscape:current-layer="svg2" />
 <defs
   id="defs4">
   <linearGradient
   id="id0"
   gradientUnits="userSpaceOnUse"
   x1="249.991"
   y1="445.22"
   x2="249.991"
   y2="428.846">
    <stop
   offset="0"
   stop-color="#727273"
   id="stop7" />
    <stop
   offset="1"
   stop-color="#151515"
   id="stop9" />
   </linearGradient>
   <linearGradient
   id="id1"
   gradientUnits="userSpaceOnUse"
   x1="163.071"
   y1="408.819"
   x2="336.929"
   y2="408.819">
    <stop
   offset="0"
   stop-color="#2B2B2B"
   id="stop12" />
    <stop
   offset="0.501961"
   stop-color="#5A5A5A"
   id="stop14" />
    <stop
   offset="1"
   stop-color="#2B2B2B"
   id="stop16" />
   </linearGradient>
   <linearGradient
   id="id2"
   gradientUnits="userSpaceOnUse"
   x1="252.538"
   y1="23.282"
   x2="247.462"
   y2="403.222">
    <stop
   offset="0"
   stop-color="#008BFF"
   id="stop19" />
    <stop
   offset="1"
   stop-color="#00AAFF"
   id="stop21" />
   </linearGradient>
   <linearGradient
   id="id3"
   gradientUnits="userSpaceOnUse"
   x1="304.399"
   y1="158.853"
   x2="195.601"
   y2="267.651">
    <stop
   offset="0"
   stop-color="#4C4B4C"
   id="stop24" />
    <stop
   offset="1"
   stop-color="#1D1F1F"
   id="stop26" />
   </linearGradient>
   <linearGradient
   id="id4"
   gradientUnits="userSpaceOnUse"
   x1="210.053"
   y1="253.199"
   x2="289.947"
   y2="173.305">
    <stop
   offset="0"
   stop-color="#4C4B4C"
   id="stop29" />
    <stop
   offset="1"
   stop-color="#1D1F1F"
   id="stop31" />
   </linearGradient>
 </defs>
 <g
   id="Layer_x0020_1">
  <metadata
   id="CorelCorpID_0Corel-Layer" />
  <path
   fill="url(#id0)"
   stroke="#434242"
   stroke-width="2"
   d="M327 400c15,15 32,30 48,45 16,14 24,29 16,29l-44 0c-64,-16 -130,-16 -194,0l-44 0c-8,0 0,-15 16,-29 16,-15 33,-30 49,-45 48,20 104,20 153,0z"
   id="path35" />
  <path
   fill="url(#id1)"
   d="M337 384l0 25c-55,24 -119,24 -174,0l0 -25c54,28 120,28 174,0z"
   id="path37" />
  <circle
   fill="url(#id2)"
   stroke="#434242"
   stroke-width="10"
   cx="250"
   cy="213"
   r="187"
   id="circle39" />
  <circle
   fill="#434242"
   cx="250"
   cy="68"
   r="15"
   id="circle41" />
  <circle
   fill="#0060B1"
   cx="250"
   cy="354"
   r="18"
   id="circle43" />
  <line
   fill="none"
   stroke="#434242"
   stroke-width="10"
   x1="63"
   y1="213"
   x2="437"
   y2="213"
   id="line45" />
  <circle
   fill="white"
   cx="250"
   cy="213"
   r="90"
   id="circle47" />
  <circle
   fill="url(#id3)"
   cx="250"
   cy="213"
   r="80"
   id="circle49" />
  <circle
   fill="none"
   cx="250"
   cy="213"
   r="38"
   id="circle51" />
  <circle
   fill="url(#id4)"
   cx="250"
   cy="213"
   r="62"
   id="circle53" />
  <circle
   fill="#F0F0F0"
   cx="250"
   cy="213"
   r="35"
   id="circle55" />
  <circle
   fill="#008BFF"
   cx="250"
   cy="213"
   r="31"
   id="circle57" />
  <circle
   fill="#00AAFF"
   cx="250"
   cy="213"
   r="20"
   id="circle59" />
  <circle
   fill="#E8E8E8"
   cx="250"
   cy="213"
   r="5"
   id="circle61" />
 </g>
</svg>